<svg xmlns="http://www.w3.org/2000/svg" xmlns:xlink="http://www.w3.org/1999/xlink" viewBox="0 0 960 540" zoomAndPan="disable" preserveAspectRatio="none" width="1080px" height="1920px" style="background-color: #5e43a4;" >

    <style type="text/css"><![CDATA[
		line
		{
			stroke: rgba(255,255,255,0.1);
			stroke-width: 1px;
		}
    ]]></style>

	<line x1="1100" y1="500" x2="-720" y2="250"/>
	<line x1="1100" y1="500" x2="-720" y2="-100"/>
	<line x1="1100" y1="500" x2="-720" y2="-500"/>
	<line x1="1100" y1="500" x2="-250" y2="-500"/>
	<line x1="1100" y1="500" x2="300" y2="-500"/>
	<line x1="1100" y1="500" x2="750" y2="-500"/>

	<line x1="1750" y1="0" x2="750" y2="500"/>
	<line x1="1500" y1="0" x2="500" y2="500"/>
	<line x1="1150" y1="0" x2="150" y2="500"/>
	<line x1="700" y1="0" x2="-300" y2="500"/>
	<line x1="150" y1="0" x2="-850" y2="500"/>

</svg>